11101110 = opcode
00111000 = 38h
00010101 = CMDID[0] = 15h
00101111 = CMDID[1] = 2Fh } CMDID = 2F15h
01110001 = 71h
10101101 = ADh
11000100 = C4h
11111011 = FBh
10100111 = A7h
00011011 = 1Bh
01000010
11010010
11110001
01100101
00101000
00110010
10011110
01010101
01100101
10001000
10000100
11011101
01011011
00001000
11111110
01011010
01111111
10001101
11010111
11111010
01101110
10100110
01000101
11101110
00001101
10011101
01111001
11110000
01011110
10011011
00010110
00001110
11111000
01111001
10000101
10010100
00100010
00101100
11000000
10101001
10001100
01110010
10101011
00100010
11101110
10110001
01111010
10111111
10011010
01001101
00100010
01101100 0x6C
00000111 0x07
01100100 0x64
