00000010 = opcode
01100001
10010110 = CMDID[0] = 96h
10110010 = CMDID[1] = B2h } CMDID = B296h
01101011
11001110
10000110
11111101
11011011
10001001
10011111
00101101
10100101
01101000
10001010
00010011
00001010
00110100
00000010
00101111
00101101
11110110
01111000
00111000
10010100
01000100
10110110
00001000
00100001
01111000
10000011
10101011
01000101
01110100
10100110
01001111
01000100
10100000 = A0
11010110 LBA(0) = D6 => [92 DC 3F 96 11 BD FC D6] 92dc3f9611bdfcd6
11111100 LBA(1) = FC
10111101 LBA(2) = BD
00010001 LBA(3) = 11
10010110 LBA(4) = 96
00111111 LBA(5) = 3F
11011100 LBA(6) = DC
10010010 LBA(7) = 92
11001001 = C9
00001110
11010100
00111010 FUA = 3A
10000010 DSM = 82
00111011
00100000
10001010
10000101
11100101
00011001
10000110
00000100
00100001
01011011 TEST(0) = 5B => [E5 50 5A 5B] e5505a5b
01011010 TEST(1) = 5A
01010000 TEST(2) = 50
11100101 TEST(3) = E5
